…
    ## Rows: 409 Columns: 6
    ## ── Column specification ────────────────────────────────────────────────────────
    ## Delimiter: ","
    ## chr (6): First Name, Last Name, Email Address, Company, Position, Connected On
    ## 
    ## ℹ Use `spec()` to retrieve the full column specification for this data.
    ## ℹ Specify the column types or set `show_col_types = FALSE` to quiet this message.

``` r
con_fixed %>% drop_na(Company)
```

    ## # A tibble: 400 × 6
    ##    `First Name`      `Last Name` `Email Address` Company Position `Connected On`
    ##    <chr>             <chr>       <chr>           <chr>   <chr>    <chr>         
    ##  1 Ilnaz             Bamdadi     <NA>            BNP Pa… AVP - M… 28-Apr-22     
    ##  2 Alexis            de Pampelo… <NA>            Keurig… Busines… 28-Apr-22     
    ##  3 Changseung (Chan… Yoo         <NA>            McGill… Assista… 25-Apr-22     
    ##  4 Jonathan          Guzzo       <NA>            BNP Pa… Vice Pr… 18-Apr-22     
    ##  5 Laura             Park        <NA>            Dash H… Senior … 18-Apr-22     
    ##  6 Chelsea           Hon         <NA>            Accent… Managem… 18-Apr-22     
    ##  7 Jack              Liang       <NA>            McKess… Data An… 18-Apr-22     
    ##  8 Marion            Laniel      <NA>            Apple   Technic… 17-Mar-22     
    ##  9 Solomon           Gomez       <NA>            Gorgias Growth … 09-Mar-22     
    ## 10 Vaibhav           Vishal      <NA>            Air Tr… Analyti… 05-Mar-22     
    ## # … with 390 more rows

## Get count of contacts by employer

``` r
company_summary = con_fixed %>% count(Company, sort=TRUE)
 
company_summary
```

    ## # A tibble: 292 × 2
    ##    Company                                                 n
    ##    <chr>                                               <int>
    ##  1 McGill University - Desautels Faculty of Management    11
    ##  2 Verafin                                                11
    ##  3 <NA>                                                    9
    ##  4 ExxonMobil                                              7
    ##  5 Cenovus Energy                                          6
    ##  6 Imperial Oil                                            6
    ##  7 Irving Shipbuilding                                     5
    ##  8 Hatch                                                   4
    ##  9 Intact                                                  4
    ## 10 Memorial University of Newfoundland                     4
    ## # … with 282 more rows
…
Then, generate the node list, which is the unique instances of our node
labels. For this exercise, because I reduced the node labels to be the
first name and first initial of the last name (to protect the privacy of
my connections), there might be duplicates in my node_label list.
Meaning that my list of nodes will actually be smaller than my number of
connections

``` r
nodes <- con_fixed %>% distinct(node_label)
nodes <- nodes %>% rowid_to_column("id")
nodes
```

    ## # A tibble: 387 × 2
    ##       id node_label          
    ##    <int> <chr>               
    ##  1     1 Ilnaz B             
    ##  2     2 Alexis d            
    ##  3     3 Changseung (Chang) Y
    ##  4     4 Jonathan G          
    ##  5     5 Laura P             
    ##  6     6 Chelsea H           
    ##  7     7 Jack L              
    ##  8     8 Marion L            
    ##  9     9 Solomon G           
    ## 10    10 Vaibhav V           
    ## # … with 377 more rows
…
edges <- edges %>% 
  left_join(nodes, by = c("node_label_2" = "node_label")) %>% 
  rename(node_2 = id)
```

``` r
edges <- select(edges, node_1, node_2)
edges
```

    ## # A tibble: 542 × 2
    ##    node_1 node_2
    ##     <int>  <int>
    ##  1    273    209
    ##  2    273    276
    ##  3     65     51
    ##  4     65      3
    ##  5     65     56
    ##  6     65     38
    ##  7     65     33
    ##  8     65     26
    ##  9     65     31
    ## 10     65     69
    ## # … with 532 more rows
…
